{
  "current_page": 1,
  "total_pages": 2,
  "page_size": 3,
  "total_items": 4,
  "data": [
    {
      "id": 1,
      "start_at": "2023-09-26T13:00:00Z",
      "end_at": "2023-09-26T13:45:00Z",
      "channel": 1,
      "courtroom": "COURTROOM 1"
    },
    {
      "id": 2,
      "start_at": "2023-09-26T13:00:00Z",
      "end_at": "2023-09-26T13:45:00Z",
      "channel": 2,
      "courtroom": "COURTROOM 1"
    },
    {
      "id": 3,
      "start_at": "2023-09-26T13:00:00Z",
      "end_at": "2023-09-26T13:45:00Z",
      "channel": 3,
      "courtroom": "COURTROOM 1"
    }
  ]
}